Arbeidskrav 5 Analyzing repeated measures experiments
…
Fr alle treningsktene ble det utfrt en standardisert oppvarmingsrutine som inneholdt 5 min sykling og 10 repetisjoner med kroppsvekt av pushups, situps, rygghev og squats og 10 repetisjoner p 50% av 1RM p hver velse de skal trene. Beinvelsene ble utfrt i flgende rekkeflge: ettbeinsbeinpress, kne fleksjon og kneekstensjon utfrt som enten single- sett eller multiple- sett. Etter beinvelsene utfrte deltakerne to sett av bilatteral benkpress, nedtrekk og enten skulderpress eller sittende roing. Pausene mellom settene var p 90- 180 sekunder. Intensiteten p treningsktene ble gradvis kt gjennom treningsperioden, deltakerne utfrte 10RM de frste 2 ukene, etterfulgt av 8RM i 3 uker og 7 uker med 7RM. Treningsktene med maksimal innsats hadde minst 48t mellom og treningskter og submaksimale kter hadde 24t mellom. For  hjelpe med restitusjonen ble en standardisert drikke gitt etter hver velse.

Maksimal styrke ble beskrevet som 1RM i ettbeinsbeinpress og kneekstensjon. Testen for hver velse startet med en standardisert spesifikk oppvarming fr 1RM ble funnet ved  ke motstanden progressivt til deltakeren ikke lenger klarte  lfte vekten.

Tverrsnittarealet til musklene i quadriceps (vastus lateralis, medialis, intermedius og rectus femoris) ble testet fr og etter treningsperioden med MRI- scan. Kroppssammensetning ble bestemt fr og etter treningsperioden ved bruk av en DXA- scan. Fr MRI og DXA mlingene mtte deltakerne vre fastende i 2timer og mtte unng hard fysisk aktivitet 48t fr. 

Statestikk

All deskriptiv data er presentert som et gjennomsnitt av prosentvis ending med standardavvik ved mindre annet er oppgitt. Statistiske tester ble utfrt i RStudio (versjon RStudio 1.4.1717; R Foundation for Statistics Computing, Vienna, AT)

Resultater

Totalt, frte 12 uker med styrketrening til en signifikant kning i muskelstyrke p 3114% for multiple- sett og en kning p 2513% for multiple- sett (P<0,001). kningen i muskelvekst var ogs signifikant p 3,34% for multiple- sett og 24% for single- sett (P<0,001).

## # A tibble: 78 x 9
##    participant sets  sex   leg     pre  post lbm.change  pre.mc prosentvis.endr~
##    <chr>       <chr> <chr> <chr> <dbl> <dbl>      <dbl>   <dbl>            <dbl>
##  1 FP28        mult~ fema~ L      7059  7273        214 -1658.            3.03  
##  2 FP28        sing~ fema~ R      7104  7227        123 -1613.            1.73  
##  3 FP40        sing~ fema~ L      7190  7192          2 -1527.            0.0278
##  4 FP40        mult~ fema~ R      7506  7437        -69 -1211.           -0.919 
##  5 FP21        sing~ male  L     10281 10470        189  1564.            1.84  
##  6 FP21        mult~ male  R     10200 10819        619  1483.            6.07  
##  7 FP34        sing~ fema~ L      6014  6326        312 -2703.            5.19  
##  8 FP34        mult~ fema~ R      6009  6405        396 -2708.            6.59  
##  9 FP23        sing~ male  L      8242  8687        445  -475.            5.40  
## 10 FP23        mult~ male  R      8685  8480       -205   -32.4          -2.36  
## # ... with 68 more rows
…
## # A tibble: 160 x 8
## # Groups:   participant [41]
##    participant time  sets     sex    leg   lean.mass     n group   
##    <chr>       <fct> <chr>    <chr>  <chr>     <dbl> <int> <fct>   
##  1 FP28        pre   multiple female L          7059     4 multiple
##  2 FP28        pre   single   female R          7104     4 single  
##  3 FP40        pre   single   female L          7190     4 single  
##  4 FP40        pre   multiple female R          7506     4 multiple
##  5 FP21        pre   single   male   L         10281     4 single  
##  6 FP21        pre   multiple male   R         10200     4 multiple
##  7 FP34        pre   single   female L          6014     4 single  
##  8 FP34        pre   multiple female R          6009     4 multiple
##  9 FP23        pre   single   male   L          8242     4 single  
## 10 FP23        pre   multiple male   R          8685     4 multiple
## # ... with 150 more rows
…
## # A tibble: 78 x 10
##    participant sex    sets      post   pre session1 week2 week5 week9
##    <chr>       <chr>  <chr>    <dbl> <dbl>    <dbl> <dbl> <dbl> <dbl>
##  1 FP1         male   multiple 0.696 0.560    0.541 0.572 0.626 0.715
##  2 FP1         male   single   0.687 0.603    0.628 0.674 0.693 0.722
##  3 FP11        male   multiple 0.776 0.604    0.594 0.711 0.772 0.737
##  4 FP11        male   single   0.708 0.568    0.570 0.637 0.693 0.644
##  5 FP12        female multiple 0.757 0.601    0.627 0.652 0.637 0.715
##  6 FP12        female single   0.729 0.559    0.600 0.634 0.597 0.680
##  7 FP13        male   multiple 0.732 0.512    0.528 0.600 0.660 0.698
##  8 FP13        male   single   0.757 0.531    0.541 0.597 0.673 0.711
##  9 FP14        female multiple 0.518 0.364    0.324 0.440 0.448 0.511
## 10 FP14        female single   0.490 0.395    0.382 0.431 0.445 0.470
## # ... with 68 more rows, and 1 more variable: prosentvis.endring <dbl>
…
## # A tibble: 468 x 5
##    participant time     sex   sets     combined.load
##    <chr>       <chr>    <chr> <chr>            <dbl>
##  1 FP1         post     male  multiple         0.696
##  2 FP1         post     male  single           0.687
##  3 FP1         pre      male  multiple         0.560
##  4 FP1         pre      male  single           0.603
##  5 FP1         session1 male  multiple         0.541
##  6 FP1         session1 male  single           0.628
##  7 FP1         week2    male  multiple         0.572
##  8 FP1         week2    male  single           0.674
##  9 FP1         week5    male  multiple         0.626
## 10 FP1         week5    male  single           0.693
## # ... with 458 more rows
…
